module gitlab.com/sirlatrom/docker-secretprovider-plugin-vault

go 1.16

require (
	github.com/Microsoft/go-winio v0.4.16 // indirect
	github.com/containerd/containerd v1.4.4 // indirect
	github.com/coreos/go-systemd v0.0.0-20191104093116-d3cd4ed1dbcf // indirect
	github.com/docker/docker v20.10.8+incompatible
	github.com/docker/go-plugins-helpers v0.0.0-20200102110956-c9a8a2d92ccc
	github.com/frankban/quicktest v1.11.3 // indirect
	github.com/gogo/protobuf v1.3.2 // indirect
	github.com/golang/snappy v0.0.3 // indirect
	github.com/gorilla/mux v1.8.0 // indirect
	github.com/hashicorp/errwrap v1.1.0 // indirect
	github.com/hashicorp/go-cleanhttp v0.5.2 // indirect
	github.com/hashicorp/go-retryablehttp v0.6.8 // indirect
	github.com/hashicorp/vault/api v1.0.5-0.20201214200055-e99355528dc2
	github.com/hashicorp/vault/sdk v0.1.14-0.20210308182001-66cbbe79821a // indirect
	github.com/mitchellh/mapstructure v1.4.1 // indirect
	github.com/moby/term v0.0.0-20201216013528-df9cb8a40635 // indirect
	github.com/pierrec/lz4 v2.6.0+incompatible // indirect
	github.com/sirupsen/logrus v1.9.3
	golang.org/x/net v0.0.0-20210226172049-e18ecbb05110 // indirect
	golang.org/x/time v0.0.0-20210220033141-f8bda1e9f3ba // indirect
	google.golang.org/grpc v1.36.0 // indirect
	gotest.tools/v3 v3.0.3 // indirect
)
